Tarea 3
…
Como se puede observar en la tabla 3 y en el gráfico el 50% de los
clientes de la empresa tienen un solo hijo, el 28% no tienen hijos, el
18% llegan a tener 2 hijos y tan solo el 2.37% tienen 3 hijos. Por lo
tanto la moda en la empresa es que los clientes tengan solamente 1
hijo.

tabla4 <- marketing_data_cleaned |> 
  count(Age_years, sort = TRUE) |> 
  mutate(porc = 100*n/sum(n))
tabla4

## # A tibble: 52 × 3
##    Age_years     n  porc
##        <dbl> <int> <dbl>
##  1      38.8    89  3.99
##  2      43.8    86  3.85
##  3      39.8    82  3.67
##  4      42.8    79  3.54
##  5      36.8    77  3.45
##  6      44.8    77  3.45
##  7      41.8    73  3.27
##  8      49.8    73  3.27
##  9      45.8    71  3.18
## 10      40.8    69  3.09
## # … with 42 more rows
…
Para determinar los meses en los que cada cliente pertenece como miembro
de la empresa hemos agrupado por periodos de 3 meses cada uno, se pueden
observar tamaños muy similares para cada grupo, lo que nos dice que la
captación de clientes es bastante uniforme. El número de meses promedio
como miembro de la empresa es 14.

tabla6 <- marketing_data_cleaned |> 
  count(NumPurchases, sort = TRUE) |> 
  mutate(porc = 100*n/sum(n))
tabla6

## # A tibble: 32 × 3
##    NumPurchases     n  porc
##           <dbl> <int> <dbl>
##  1            4   202  9.05
##  2            6   191  8.55
##  3            5   180  8.06
##  4            3   128  5.73
##  5            7   128  5.73
##  6           18   104  4.66
##  7           14   100  4.48
##  8           16    98  4.39
##  9           17    89  3.99
## 10           21    86  3.85
## # … with 22 more rows
…
