MARKETING CAMPAIGN
…
Conviene comprobar siempre que se ha realizado de manera estratificada

Show code

# Comprobamos estratos

marketing_data_cleaned_train  |>  
  count(Income)  |>  
  mutate(porc = 100 * n / sum(n))

# A tibble: 1,775 × 3
   Income     n   porc
    <dbl> <int>  <dbl>
 1   4428     1 0.0498
 2   5305     1 0.0498
 3   5648     1 0.0498
 4   6560     1 0.0498
 5   7144     1 0.0498
 6   7500    10 0.498 
 7   8940     1 0.0498
 8   9255     1 0.0498
 9   9548     1 0.0498
10   9722     1 0.0498
# … with 1,765 more rows

Show code

marketing_data_cleaned_test  |>  
  count(Income)  |>  
  mutate(porc = 100 * n / sum(n))

# A tibble: 222 × 3
   Income     n  porc
    <dbl> <int> <dbl>
 1   2447     1 0.446
 2   6835     1 0.446
 3   7500     2 0.893
 4   8820     1 0.446
 5  13624     1 0.446
 6  14906     1 0.446
 7  18169     1 0.446
 8  18929     1 0.446
 9  18978     1 0.446
10  20130     1 0.446
# … with 212 more rows
…
Show code

marketing_data_cleaned_train  |>  
  count(MntFishProducts)  |>  
  mutate(porc = 100 * n / sum(n))

# A tibble: 177 × 3
   MntFishProducts     n    porc
             <dbl> <int>   <dbl>
 1               0   334 16.6   
 2               1     4  0.199 
 3               2   142  7.07  
 4               3   118  5.87  
 5               4    99  4.93  
 6               5     1  0.0498
 7               6    74  3.68  
 8               7    56  2.79  
 9               8    54  2.69  
10              10    48  2.39  
# … with 167 more rows
…
marketing_rec_Lin

Recipe

Inputs:

      role #variables
   outcome          1
 predictor          1

Show code

bake(marketing_rec_Lin  |>  prep(), new_data = NULL) 

# A tibble: 2,009 × 2
   Education  MntFishProducts
   <fct>                <dbl>
 1 Graduation               0
 2 Graduation              11
 3 Graduation               3
 4 Graduation               2
 5 PhD                      0
 6 Master                   0
 7 Master                   0
 8 PhD                      0
 9 PhD                      0
10 Graduation               0
# … with 1,999 more rows
…
